%YAML 1.1
%TAG !u! tag:unity3d.com,2011:
--- !u!114 &11400000
MonoBehaviour:
  m_ObjectHideFlags: 0
  m_CorrespondingSourceObject: {fileID: 0}
  m_PrefabInstance: {fileID: 0}
  m_PrefabAsset: {fileID: 0}
  m_GameObject: {fileID: 0}
  m_Enabled: 1
  m_EditorHideFlags: 0
  m_Script: {fileID: 11500000, guid: 9b7118a94617c5042887b16e66afec05, type: 3}
  m_Name: Player2
  m_EditorClassIdentifier: 
  _MaxMoves: 10
  _MaxHP: 10
  HP: 10
  Actions: 2
  LeftMoves: 10
  Position: {x: 4, y: 0, z: 2}
  DamageMaked: 5
  _weaponModyficator: 90
  IsDeath: 0
  ClassOfCharacter: Mage
  NameOfPreFab: Player1 Variant2 Variant
